…
    #> 
    #> $plot_data
    #> # A tibble: 34 x 4
    #> # Groups:   condition [2]
    #>    condition      x mean_error se_error
    #>    <fct>      <dbl>      <dbl>    <dbl>
    #>  1 a         -2.96      0.0630  0.00913
    #>  2 a         -2.59      0.0581  0.00863
    #>  3 a         -2.22      0.0641  0.0116 
    #>  4 a         -1.85      0.0638  0.0105 
    #>  5 a         -1.48      0.0773  0.0113 
    #>  6 a         -1.11      0.0914  0.0157 
    #>  7 a         -0.739     0.167   0.0149 
    #>  8 a         -0.370     0.356   0.0191 
    #>  9 a          0         0.800   0.0556 
    #> 10 a          0.370     0.349   0.0207 
    #> # … with 24 more rows
…
    #> 
    #> $plot_data
    #> # A tibble: 68 x 4
    #> # Groups:   set_size [4]
    #>    set_size      x mean_error se_error
    #>       <dbl>  <dbl>      <dbl>    <dbl>
    #>  1        1 -2.96     0        0      
    #>  2        1 -2.59     0.00449  0.00323
    #>  3        1 -2.22     0.00151  0.00151
    #>  4        1 -1.85     0        0      
    #>  5        1 -1.48     0.00151  0.00151
    #>  6        1 -1.11     0.00599  0.00404
    #>  7        1 -0.739    0.0389   0.0111 
    #>  8        1 -0.370    0.469    0.0395 
    #>  9        1  0        1.60     0.0661 
    #> 10        1  0.370    0.515    0.0446 
    #> # … with 58 more rows
…
    #> 
    #> $plot_data
    #> # A tibble: 204 x 5
    #> # Groups:   set_size, delay [12]
    #>    set_size delay      x mean_error se_error
    #>       <dbl> <fct>  <dbl>      <dbl>    <dbl>
    #>  1        1 100   -2.96     0        0      
    #>  2        1 100   -2.59     0        0      
    #>  3        1 100   -2.22     0.00470  0.00470
    #>  4        1 100   -1.85     0        0      
    #>  5        1 100   -1.48     0.00443  0.00443
    #>  6        1 100   -1.11     0        0      
    #>  7        1 100   -0.739    0.0442   0.0215 
    #>  8        1 100   -0.370    0.491    0.0537 
    #>  9        1 100    0        1.53     0.0791 
    #> 10        1 100    0.370    0.540    0.0518 
    #> # … with 194 more rows
…
